#FILE,VERSION,TYPE,UNITTEST,LOCALIZATION,PATCHNAME,CUSTOMIZED,FWPVERSION,FUTURE1,FUTURE2,FUTURE3,FUTURE4
rpm-db/database_change_scripts/source/0160_rpm_promo_dtl_cil_payload.sql,717463,rpm_db_change_scripts,,,,,,,,,
rpm-db/plsql/rpmpayloadpopsqls.pls,0,rpm_db_packages,,,,,,,,,
rpm-db/plsql/rpmpayloadpopsqlb.pls,0,rpm_db_packages,,,,,,,,,
rpm-db/database_change_scripts/source/002200_rpm_stage_finance_promo.sql,1005897,rpm_db_change_scripts,,,,N,,,,,
rpm-db/database_change_scripts/source/002203_rpm_stage_threshold_promo.sql,1005897,rpm_db_change_scripts,,,,N,,,,,
rpm-build/dist/rpm14.ear,1103745,rpm_java_app,,,,,,,,,
rpm-server/batch/scripts/peeForChunkCCEmergencyEvents.sh,1077002,rpm_java_batch,,,,N,,,,,
rpm-db/plsql/rpmorpospricepubsqls.pls,108792,rpm_db_packages,,,,N,,,,,
rpm-db/plsql/rpmorpospricepubsqlb.pls,1123578,rpm_db_packages,,,,N,,,,,
rpm-server/batch/scripts/RPMtoORPOSPublishBatch.sh,421900,rpm_java_batch,,,,N,,,,,
rpm-server/batch/scripts/RPMtoORPOSPublishExport.sh,1123578,rpm_java_batch,,,,N,,,,,
rpm-server/batch/scripts/RPMtoORPOSSpoolItems.sql,646237,rpm_java_batch,,,,N,,,,,
rpm-server/batch/scripts/RPMtoORPOSSpoolMsg.sql,1123578,rpm_java_batch,,,,N,,,,,
rpm-server/batch/scripts/itemLocDeleteBatch.sh,421900,rpm_java_batch,,,,N,,,,,
rpm-server/batch/scripts/priceChangeAutoApproveResultsPurgeBatch.sh,421900,rpm_java_batch,,,,N,,,,,
rpm-server/batch/scripts/priceChangePurgeBatch.sh,421900,rpm_java_batch,,,,N,,,,,
rpm-server/batch/scripts/priceChangePurgeWorkspaceBatch.sh,421900,rpm_java_batch,,,,N,,,,,
rpm-server/batch/scripts/priceEventItemListPurgeBatch.sh,1105750,rpm_java_batch,,,,N,,,,,
rpm-server/batch/scripts/promotionPurgeBatch.sh,421900,rpm_java_batch,,,,N,,,,,
rpm-server/batch/scripts/purgeBulkConflictCheckArtifacts.sh,421900,rpm_java_batch,,,,N,,,,,
rpm-server/batch/scripts/purgeConCheckResultsErrorData.sh,1105750,rpm_java_batch,,,,N,,,,,
rpm-server/batch/scripts/purgeExpiredExecutedOrApprovedClearancesBatch.sh,1105750,rpm_java_batch,,,,N,,,,,
rpm-server/batch/scripts/purgeLocationMovesBatch.sh,421900,rpm_java_batch,,,,N,,,,,
rpm-server/batch/scripts/purgePayloadsBatch.sh,1105750,rpm_java_batch,,,,N,,,,,
rpm-server/batch/scripts/purgeRPMBatchRunHistory.sh,1105750,rpm_java_batch,,,,N,,,,,
rpm-server/batch/scripts/purgeTxnExclusionSkulistWS.sh,1105750,rpm_java_batch,,,,N,,,,,
rpm-server/batch/scripts/purgeUnusedAndAbandonedClearancesBatch.sh,1105750,rpm_java_batch,,,,N,,,,,
rpm-server/batch/scripts/purgepayloads.sql,1105755,rpm_java_batch,,,,N,,,,,
rpm-server/batch/scripts/taskPurgeBatch.sh,421900,rpm_java_batch,,,,N,,,,,
rpm-server/batch/scripts/zoneFutureRetailPurgeBatch.sh,421900,rpm_java_batch,,,,N,,,,,
rpm-db/database_change_scripts/source/006000_rpm_batch_log.sql,1176807,rpm_db_change_scripts,,,,,,,,,
Build/orpatch/deploy/ant/lib/ant-1.7.1.pom,907342,orpatch_deploy,,,,,,,,,
Build/orpatch/deploy/ant/lib/ant-1.7.1.pom.md5,907342,orpatch_deploy,,,,,,,,,
Build/orpatch/deploy/ant/lib/ant-1.7.1.pom.sha1,907342,orpatch_deploy,,,,,,,,,
Build/orpatch/deploy/ant/lib/ant-antlr-1.7.1.pom,907342,orpatch_deploy,,,,,,,,,
Build/orpatch/deploy/ant/lib/ant-antlr-1.7.1.pom.md5,907342,orpatch_deploy,,,,,,,,,
Build/orpatch/deploy/ant/lib/ant-antlr-1.7.1.pom.sha1,907342,orpatch_deploy,,,,,,,,,
Build/orpatch/deploy/ant/lib/ant-apache-bcel-1.7.1.pom,907342,orpatch_deploy,,,,,,,,,
Build/orpatch/deploy/ant/lib/ant-apache-bcel-1.7.1.pom.md5,907342,orpatch_deploy,,,,,,,,,
Build/orpatch/deploy/ant/lib/ant-apache-bcel-1.7.1.pom.sha1,907342,orpatch_deploy,,,,,,,,,
Build/orpatch/deploy/ant/lib/ant-apache-bsf-1.7.1.pom,907342,orpatch_deploy,,,,,,,,,
Build/orpatch/deploy/ant/lib/ant-apache-bsf-1.7.1.pom.md5,907342,orpatch_deploy,,,,,,,,,
Build/orpatch/deploy/ant/lib/ant-apache-bsf-1.7.1.pom.sha1,907342,orpatch_deploy,,,,,,,,,
Build/orpatch/deploy/ant/lib/ant-apache-log4j-1.7.1.pom,907342,orpatch_deploy,,,,,,,,,
Build/orpatch/deploy/ant/lib/ant-apache-log4j-1.7.1.pom.md5,907342,orpatch_deploy,,,,,,,,,
Build/orpatch/deploy/ant/lib/ant-apache-log4j-1.7.1.pom.sha1,907342,orpatch_deploy,,,,,,,,,
Build/orpatch/deploy/ant/lib/ant-apache-oro-1.7.1.pom,907342,orpatch_deploy,,,,,,,,,
Build/orpatch/deploy/ant/lib/ant-apache-oro-1.7.1.pom.md5,907342,orpatch_deploy,,,,,,,,,
Build/orpatch/deploy/ant/lib/ant-apache-oro-1.7.1.pom.sha1,907342,orpatch_deploy,,,,,,,,,
Build/orpatch/deploy/ant/lib/ant-apache-regexp-1.7.1.pom,907342,orpatch_deploy,,,,,,,,,
Build/orpatch/deploy/ant/lib/ant-apache-regexp-1.7.1.pom.md5,907342,orpatch_deploy,,,,,,,,,
Build/orpatch/deploy/ant/lib/ant-apache-regexp-1.7.1.pom.sha1,907342,orpatch_deploy,,,,,,,,,
Build/orpatch/deploy/ant/lib/ant-apache-resolver-1.7.1.pom,907342,orpatch_deploy,,,,,,,,,
Build/orpatch/deploy/ant/lib/ant-apache-resolver-1.7.1.pom.md5,907342,orpatch_deploy,,,,,,,,,
Build/orpatch/deploy/ant/lib/ant-apache-resolver-1.7.1.pom.sha1,907342,orpatch_deploy,,,,,,,,,
Build/orpatch/deploy/ant/lib/ant-commons-logging-1.7.1.pom,907342,orpatch_deploy,,,,,,,,,
Build/orpatch/deploy/ant/lib/ant-commons-logging-1.7.1.pom.md5,907342,orpatch_deploy,,,,,,,,,
Build/orpatch/deploy/ant/lib/ant-commons-logging-1.7.1.pom.sha1,907342,orpatch_deploy,,,,,,,,,
Build/orpatch/deploy/ant/lib/ant-commons-net-1.7.1.pom,907342,orpatch_deploy,,,,,,,,,
Build/orpatch/deploy/ant/lib/ant-commons-net-1.7.1.pom.md5,907342,orpatch_deploy,,,,,,,,,
Build/orpatch/deploy/ant/lib/ant-commons-net-1.7.1.pom.sha1,907342,orpatch_deploy,,,,,,,,,
Build/orpatch/deploy/ant/lib/ant-jai-1.7.1.pom,907342,orpatch_deploy,,,,,,,,,
Build/orpatch/deploy/ant/lib/ant-jai-1.7.1.pom.md5,907342,orpatch_deploy,,,,,,,,,
Build/orpatch/deploy/ant/lib/ant-jai-1.7.1.pom.sha1,907342,orpatch_deploy,,,,,,,,,
Build/orpatch/deploy/ant/lib/ant-javamail-1.7.1.pom,907342,orpatch_deploy,,,,,,,,,
Build/orpatch/deploy/ant/lib/ant-javamail-1.7.1.pom.md5,907342,orpatch_deploy,,,,,,,,,
Build/orpatch/deploy/ant/lib/ant-javamail-1.7.1.pom.sha1,907342,orpatch_deploy,,,,,,,,,
Build/orpatch/deploy/ant/lib/ant-jdepend-1.7.1.pom,907342,orpatch_deploy,,,,,,,,,
Build/orpatch/deploy/ant/lib/ant-jdepend-1.7.1.pom.md5,907342,orpatch_deploy,,,,,,,,,
Build/orpatch/deploy/ant/lib/ant-jdepend-1.7.1.pom.sha1,907342,orpatch_deploy,,,,,,,,,
Build/orpatch/deploy/ant/lib/ant-jmf-1.7.1.pom,907342,orpatch_deploy,,,,,,,,,
Build/orpatch/deploy/ant/lib/ant-jmf-1.7.1.pom.md5,907342,orpatch_deploy,,,,,,,,,
Build/orpatch/deploy/ant/lib/ant-jmf-1.7.1.pom.sha1,907342,orpatch_deploy,,,,,,,,,
Build/orpatch/deploy/ant/lib/ant-jsch-1.7.1.pom,907342,orpatch_deploy,,,,,,,,,
Build/orpatch/deploy/ant/lib/ant-jsch-1.7.1.pom.md5,907342,orpatch_deploy,,,,,,,,,
Build/orpatch/deploy/ant/lib/ant-jsch-1.7.1.pom.sha1,907342,orpatch_deploy,,,,,,,,,
Build/orpatch/deploy/ant/lib/ant-junit-1.7.1.pom,907342,orpatch_deploy,,,,,,,,,
Build/orpatch/deploy/ant/lib/ant-junit-1.7.1.pom.md5,907342,orpatch_deploy,,,,,,,,,
Build/orpatch/deploy/ant/lib/ant-junit-1.7.1.pom.sha1,907342,orpatch_deploy,,,,,,,,,
Build/orpatch/deploy/ant/lib/ant-launcher-1.7.1.pom,907342,orpatch_deploy,,,,,,,,,
Build/orpatch/deploy/ant/lib/ant-launcher-1.7.1.pom.md5,907342,orpatch_deploy,,,,,,,,,
Build/orpatch/deploy/ant/lib/ant-launcher-1.7.1.pom.sha1,907342,orpatch_deploy,,,,,,,,,
Build/orpatch/deploy/ant/lib/ant-netrexx-1.7.1.pom,907342,orpatch_deploy,,,,,,,,,
Build/orpatch/deploy/ant/lib/ant-netrexx-1.7.1.pom.md5,907342,orpatch_deploy,,,,,,,,,
Build/orpatch/deploy/ant/lib/ant-netrexx-1.7.1.pom.sha1,907342,orpatch_deploy,,,,,,,,,
Build/orpatch/deploy/ant/lib/ant-nodeps-1.7.1.pom,907342,orpatch_deploy,,,,,,,,,
Build/orpatch/deploy/ant/lib/ant-nodeps-1.7.1.pom.md5,907342,orpatch_deploy,,,,,,,,,
Build/orpatch/deploy/ant/lib/ant-nodeps-1.7.1.pom.sha1,907342,orpatch_deploy,,,,,,,,,
Build/orpatch/deploy/ant/lib/ant-parent-1.7.1.pom,907342,orpatch_deploy,,,,,,,,,
Build/orpatch/deploy/ant/lib/ant-parent-1.7.1.pom.md5,907342,orpatch_deploy,,,,,,,,,
Build/orpatch/deploy/ant/lib/ant-parent-1.7.1.pom.sha1,907342,orpatch_deploy,,,,,,,,,
Build/orpatch/deploy/ant/lib/ant-starteam-1.7.1.pom,907342,orpatch_deploy,,,,,,,,,
Build/orpatch/deploy/ant/lib/ant-starteam-1.7.1.pom.md5,907342,orpatch_deploy,,,,,,,,,
Build/orpatch/deploy/ant/lib/ant-starteam-1.7.1.pom.sha1,907342,orpatch_deploy,,,,,,,,,
Build/orpatch/deploy/ant/lib/ant-stylebook-1.7.1.pom,907342,orpatch_deploy,,,,,,,,,
Build/orpatch/deploy/ant/lib/ant-stylebook-1.7.1.pom.md5,907342,orpatch_deploy,,,,,,,,,
Build/orpatch/deploy/ant/lib/ant-stylebook-1.7.1.pom.sha1,907342,orpatch_deploy,,,,,,,,,
Build/orpatch/deploy/ant/lib/ant-swing-1.7.1.pom,907342,orpatch_deploy,,,,,,,,,
Build/orpatch/deploy/ant/lib/ant-swing-1.7.1.pom.md5,907342,orpatch_deploy,,,,,,,,,
Build/orpatch/deploy/ant/lib/ant-swing-1.7.1.pom.sha1,907342,orpatch_deploy,,,,,,,,,
Build/orpatch/deploy/ant/lib/ant-testutil-1.7.1.pom,907342,orpatch_deploy,,,,,,,,,
Build/orpatch/deploy/ant/lib/ant-testutil-1.7.1.pom.md5,907342,orpatch_deploy,,,,,,,,,
Build/orpatch/deploy/ant/lib/ant-testutil-1.7.1.pom.sha1,907342,orpatch_deploy,,,,,,,,,
Build/orpatch/deploy/ant/lib/ant-trax-1.7.1.pom,907342,orpatch_deploy,,,,,,,,,
Build/orpatch/deploy/ant/lib/ant-trax-1.7.1.pom.md5,907342,orpatch_deploy,,,,,,,,,
Build/orpatch/deploy/ant/lib/ant-trax-1.7.1.pom.sha1,907342,orpatch_deploy,,,,,,,,,
Build/orpatch/deploy/ant/lib/ant-weblogic-1.7.1.pom,907342,orpatch_deploy,,,,,,,,,
Build/orpatch/deploy/ant/lib/ant-weblogic-1.7.1.pom.md5,907342,orpatch_deploy,,,,,,,,,
Build/orpatch/deploy/ant/lib/ant-weblogic-1.7.1.pom.sha1,907342,orpatch_deploy,,,,,,,,,
Build/orpatch/deploy/ant/lib/ant-nodeps.jar,907342,orpatch_deploy,,,,,,,,,
Build/orpatch/deploy/ant/lib/ant-starteam.jar,907342,orpatch_deploy,,,,,,,,,
Build/orpatch/deploy/ant/lib/ant-stylebook.jar,907342,orpatch_deploy,,,,,,,,,
Build/orpatch/deploy/ant/lib/ant-trax.jar,907342,orpatch_deploy,,,,,,,,,
Build/orpatch/deploy/ant/lib/ant-weblogic.jar,907342,orpatch_deploy,,,,,,,,,
Build/orpatch/deploy/ant/lib/xercesImpl.jar,907342,orpatch_deploy,,,,,,,,,
Build/orpatch/deploy/ant/lib/xml-apis.jar,907342,orpatch_deploy,,,,,,,,,
Build/orpatch/deploy/ant-ext/jsch-0.1.50.jar,995645,orpatch_deploy,,,,,,,,,
Build/orpatch/lib/ORPAction/RARMJavaApp.pm,993519,orpatch_lib_actions,,,,,,,,,
Build/orpatch/deploy/retail-public-security-api/lib/retail-public-security-ext-api.jar,995645,orpatch_deploy,,,,,,,,,
Build/orpatch/deploy/retail-public-security-api/lib/jacc-api.jar,995645,orpatch_deploy,,,,,,,,,
Build/orpatch/deploy/retail-public-security-api/lib/commons-cli-1.1.jar,995645,orpatch_deploy,,,,,,,,,
Build/orpatch/deploy/retail-public-security-api/lib/fmw_audit.jar,995645,orpatch_deploy,,,,,,,,,
Build/orpatch/deploy/retail-public-security-api/lib/junit.jar,995645,orpatch_deploy,,,,,,,,,
Localization/rtil/UrlInvoker.java,913051,rfm_java_taxweb_urlinvoker,,,,,,,,,
Build/orpatch/deploy/ant-ext/jsch-0.1.51.jar,995646,orpatch_deploy,,,,N,,,,,
Build/orpatch/deploy/ant/CONTRIBUTORS,1114872,orpatch_deploy,,,,N,,,,,
Build/orpatch/deploy/ant/INSTALL,907342,orpatch_deploy,,,,N,,,,,
Build/orpatch/deploy/ant/KEYS,991986,orpatch_deploy,,,,N,,,,,
Build/orpatch/deploy/ant/LICENSE,907342,orpatch_deploy,,,,N,,,,,
Build/orpatch/deploy/ant/NOTICE,1114872,orpatch_deploy,,,,N,,,,,
Build/orpatch/deploy/ant/README,907342,orpatch_deploy,,,,N,,,,,
Build/orpatch/deploy/ant/WHATSNEW,1114872,orpatch_deploy,,,,N,,,,,
Build/orpatch/deploy/ant/bin/ant,991986,orpatch_deploy,,,,N,,,,,
Build/orpatch/deploy/ant/bin/ant.bat,991986,orpatch_deploy,,,,N,,,,,
Build/orpatch/deploy/ant/bin/ant.cmd,991986,orpatch_deploy,,,,N,,,,,
Build/orpatch/deploy/ant/bin/antRun,907342,orpatch_deploy,,,,N,,,,,
Build/orpatch/deploy/ant/bin/antRun.bat,991986,orpatch_deploy,,,,N,,,,,
Build/orpatch/deploy/ant/bin/antRun.pl,1114872,orpatch_deploy,,,,N,,,,,
Build/orpatch/deploy/ant/bin/antenv.cmd,991986,orpatch_deploy,,,,N,,,,,
Build/orpatch/deploy/ant/bin/complete-ant-cmd.pl,1114872,orpatch_deploy,,,,N,,,,,
Build/orpatch/deploy/ant/bin/envset.cmd,991986,orpatch_deploy,,,,N,,,,,
Build/orpatch/deploy/ant/bin/lcp.bat,991986,orpatch_deploy,,,,N,,,,,
Build/orpatch/deploy/ant/bin/runant.pl,1114872,orpatch_deploy,,,,N,,,,,
Build/orpatch/deploy/ant/bin/runant.py,1114872,orpatch_deploy,,,,N,,,,,
Build/orpatch/deploy/ant/bin/runrc.cmd,991986,orpatch_deploy,,,,N,,,,,
Build/orpatch/deploy/ant/contributors.xml,1114872,orpatch_deploy,,,,N,,,,,
Build/orpatch/deploy/ant/etc/ant-bootstrap.jar,1114872,orpatch_deploy,,,,N,,,,,
Build/orpatch/deploy/ant/etc/changelog.xsl,907342,orpatch_deploy,,,,N,,,,,
Build/orpatch/deploy/ant/etc/checkstyle/checkstyle-frames-sortby-check.xsl,1114873,orpatch_deploy,,,,N,,,,,
Build/orpatch/deploy/ant/etc/checkstyle/checkstyle-frames.xsl,991986,orpatch_deploy,,,,N,,,,,
Build/orpatch/deploy/ant/etc/checkstyle/checkstyle-text.xsl,907342,orpatch_deploy,,,,N,,,,,
Build/orpatch/deploy/ant/etc/checkstyle/checkstyle-xdoc.xsl,907342,orpatch_deploy,,,,N,,,,,
Build/orpatch/deploy/ant/etc/coverage-frames.xsl,1114872,orpatch_deploy,,,,N,,,,,
Build/orpatch/deploy/ant/etc/jdepend-frames.xsl,1114872,orpatch_deploy,,,,N,,,,,
Build/orpatch/deploy/ant/etc/jdepend.xsl,907342,orpatch_deploy,,,,N,,,,,
Build/orpatch/deploy/ant/etc/junit-frames-xalan1.xsl,991986,orpatch_deploy,,,,N,,,,,
Build/orpatch/deploy/ant/etc/junit-frames.xsl,1114872,orpatch_deploy,,,,N,,,,,
Build/orpatch/deploy/ant/etc/junit-noframes.xsl,1114872,orpatch_deploy,,,,N,,,,,
Build/orpatch/deploy/ant/etc/log.xsl,907342,orpatch_deploy,,,,N,,,,,
Build/orpatch/deploy/ant/etc/maudit-frames.xsl,1114872,orpatch_deploy,,,,N,,,,,
Build/orpatch/deploy/ant/etc/mmetrics-frames.xsl,1114872,orpatch_deploy,,,,N,,,,,
Build/orpatch/deploy/ant/etc/tagdiff.xsl,907342,orpatch_deploy,,,,N,,,,,
Build/orpatch/deploy/ant/fetch.xml,991986,orpatch_deploy,,,,N,,,,,
Build/orpatch/deploy/ant/get-m2.xml,907342,orpatch_deploy,,,,N,,,,,
Build/orpatch/deploy/ant/lib/README,991986,orpatch_deploy,,,,N,,,,,
Build/orpatch/deploy/ant/lib/ant-antlr.jar,1114872,orpatch_deploy,,,,N,,,,,
Build/orpatch/deploy/ant/lib/ant-antlr.pom,1114873,orpatch_deploy,,,,N,,,,,
Build/orpatch/deploy/ant/lib/ant-apache-bcel.jar,1114872,orpatch_deploy,,,,N,,,,,
Build/orpatch/deploy/ant/lib/ant-apache-bcel.pom,1114873,orpatch_deploy,,,,N,,,,,
Build/orpatch/deploy/ant/lib/ant-apache-bsf.jar,1114872,orpatch_deploy,,,,N,,,,,
Build/orpatch/deploy/ant/lib/ant-apache-bsf.pom,1114873,orpatch_deploy,,,,N,,,,,
Build/orpatch/deploy/ant/lib/ant-apache-log4j.jar,1114872,orpatch_deploy,,,,N,,,,,
Build/orpatch/deploy/ant/lib/ant-apache-log4j.pom,1114873,orpatch_deploy,,,,N,,,,,
Build/orpatch/deploy/ant/lib/ant-apache-oro.jar,1114872,orpatch_deploy,,,,N,,,,,
Build/orpatch/deploy/ant/lib/ant-apache-oro.pom,1114873,orpatch_deploy,,,,N,,,,,
Build/orpatch/deploy/ant/lib/ant-apache-regexp.jar,1114872,orpatch_deploy,,,,N,,,,,
Build/orpatch/deploy/ant/lib/ant-apache-regexp.pom,1114873,orpatch_deploy,,,,N,,,,,
Build/orpatch/deploy/ant/lib/ant-apache-resolver.jar,1114872,orpatch_deploy,,,,N,,,,,
Build/orpatch/deploy/ant/lib/ant-apache-resolver.pom,1114873,orpatch_deploy,,,,N,,,,,
Build/orpatch/deploy/ant/lib/ant-apache-xalan2.jar,1114872,orpatch_deploy,,,,N,,,,,
Build/orpatch/deploy/ant/lib/ant-apache-xalan2.pom,1114873,orpatch_deploy,,,,N,,,,,
Build/orpatch/deploy/ant/lib/ant-commons-logging.jar,1114872,orpatch_deploy,,,,N,,,,,
Build/orpatch/deploy/ant/lib/ant-commons-logging.pom,1114873,orpatch_deploy,,,,N,,,,,
Build/orpatch/deploy/ant/lib/ant-commons-net.jar,1114872,orpatch_deploy,,,,N,,,,,
Build/orpatch/deploy/ant/lib/ant-commons-net.pom,1114873,orpatch_deploy,,,,N,,,,,
Build/orpatch/deploy/ant/lib/ant-jai.jar,1114872,orpatch_deploy,,,,N,,,,,
Build/orpatch/deploy/ant/lib/ant-jai.pom,1114873,orpatch_deploy,,,,N,,,,,
Build/orpatch/deploy/ant/lib/ant-javamail.jar,1114872,orpatch_deploy,,,,N,,,,,
Build/orpatch/deploy/ant/lib/ant-javamail.pom,1114873,orpatch_deploy,,,,N,,,,,
Build/orpatch/deploy/ant/lib/ant-jdepend.jar,1114872,orpatch_deploy,,,,N,,,,,
Build/orpatch/deploy/ant/lib/ant-jdepend.pom,1114873,orpatch_deploy,,,,N,,,,,
Build/orpatch/deploy/ant/lib/ant-jmf.jar,1114872,orpatch_deploy,,,,N,,,,,
Build/orpatch/deploy/ant/lib/ant-jmf.pom,1114873,orpatch_deploy,,,,N,,,,,
Build/orpatch/deploy/ant/lib/ant-jsch.jar,1114872,orpatch_deploy,,,,N,,,,,
Build/orpatch/deploy/ant/lib/ant-jsch.pom,1114873,orpatch_deploy,,,,N,,,,,
Build/orpatch/deploy/ant/lib/ant-junit.jar,1114872,orpatch_deploy,,,,N,,,,,
Build/orpatch/deploy/ant/lib/ant-junit.pom,1114873,orpatch_deploy,,,,N,,,,,
Build/orpatch/deploy/ant/lib/ant-junit4.jar,1114872,orpatch_deploy,,,,N,,,,,
Build/orpatch/deploy/ant/lib/ant-junit4.pom,1114873,orpatch_deploy,,,,N,,,,,
Build/orpatch/deploy/ant/lib/ant-launcher.jar,1114872,orpatch_deploy,,,,N,,,,,
Build/orpatch/deploy/ant/lib/ant-launcher.pom,1114873,orpatch_deploy,,,,N,,,,,
Build/orpatch/deploy/ant/lib/ant-netrexx.jar,1114872,orpatch_deploy,,,,N,,,,,
Build/orpatch/deploy/ant/lib/ant-netrexx.pom,1114873,orpatch_deploy,,,,N,,,,,
Build/orpatch/deploy/ant/lib/ant-parent.pom,1114873,orpatch_deploy,,,,N,,,,,
Build/orpatch/deploy/ant/lib/ant-swing.jar,1114872,orpatch_deploy,,,,N,,,,,
Build/orpatch/deploy/ant/lib/ant-swing.pom,1114873,orpatch_deploy,,,,N,,,,,
Build/orpatch/deploy/ant/lib/ant-testutil.jar,1114872,orpatch_deploy,,,,N,,,,,
Build/orpatch/deploy/ant/lib/ant-testutil.pom,1114873,orpatch_deploy,,,,N,,,,,
Build/orpatch/deploy/ant/lib/ant.jar,1114872,orpatch_deploy,,,,N,,,,,
Build/orpatch/deploy/ant/lib/ant.pom,1114873,orpatch_deploy,,,,N,,,,,
Build/orpatch/deploy/ant/lib/libraries.properties,991986,orpatch_deploy,,,,N,,,,,
Build/orpatch/deploy/ant/patch.xml,1114872,orpatch_deploy,,,,N,,,,,
Build/orpatch/deploy/deploy/retail-public-security-api/lib/commons-cli-1.2.jar,1004915,orpatch_deploy,,,,N,,,,,
Build/orpatch/deploy/deploy/retail-public-security-api/lib/jsr173_1.0_api.jar,907342,orpatch_deploy,,,,N,,,,,
Build/orpatch/deploy/ant-ext/jsch-0.1.53.jar,1121649,orpatch_deploy,,,,,,,,,
